{
  "registry.terraform.io/hashicorp/aws": {
    "hash": "h1:3M0q/GqB24RM5E1wIu23bEbChJ2RDVaM5lTLENB92Cc=",
    "version": "3.20.0"
  },
  "registry.terraform.io/hashicorp/tls": {
    "hash": "h1:LtCEW5v1E5Eo49+kQOsKHRYf9Hc8ZR0jTpK+mXszPHs=",
    "version": "3.0.0"
  }
}